# Blender v2.67 (sub 0) OBJ File: ''
# www.blender.org
mtllib meta.mtl
o Cube
v 1.000000 1.000000 0.000000
v 1.000000 0.000000 0.000000
v 0.000000 0.000000 0.000000
v 0.000000 1.000000 0.000000
v 1.000000 1.000000 1.000000
v 0.999999 -0.000000 1.000000
v 0.000000 0.000000 1.000000
v 0.000000 1.000000 1.000000
vt 0.000000 0.000000
vt 1.000000 0.000000
vt 0.000000 1.000000
vt 1.000000 1.000000
vn 0.000000 0.000000 -1.000000
vn -0.000000 0.000000 1.000000
vn 1.000000 -0.000001 -0.000000
vn -0.000000 -1.000000 -0.000000
vn -1.000000 0.000000 -0.000000
vn 0.000000 1.000000 0.000000
vn 1.000000 0.000000 0.000000
usemtl Material
s off
f 1/1/1 2/2/1 4/3/1
f 5/1/2 8/2/2 7/4/2
f 1/1/3 5/2/3 6/4/3
f 2/1/4 6/2/4 3/3/4
f 3/1/5 7/2/5 4/3/5
f 5/1/6 1/2/6 4/4/6
f 2/2/1 3/4/1 4/3/1
f 6/3/2 5/1/2 7/4/2
f 2/3/7 1/1/7 6/4/7
f 6/2/4 7/4/4 3/3/4
f 7/2/5 8/4/5 4/3/5
f 8/3/6 5/1/6 4/4/6
